-- Status 1 = ongoing, 2 = completed

select  id, department_id as dept, product_only,
        status, begin_date, end_date,
        stage, is_worthy as worthy, editor_id as editor, is_live as live
  from  ragu_project
  where id in (select project_id from ragu_report where kludge);

  id  | dept | product_only | status | begin_date |  end_date  | stage | worthy | editor | live
------+------+--------------+--------+------------+------------+-------+--------+--------+------
 1022 |   24 |      t       |    2   | 2011-10-01 | 2012-09-01 |   3   |    t   |    3   |   t
 1037 |   22 |      t       |    2   | 2011-10-01 | 2012-09-01 |   3   |    t   |    3   |   t
 1126 |   58 |      f       |    1   | 2011-09-01 | 2013-09-01 |   1   |        |    4   |   t
 1135 |   58 |      f       |    1   | 2011-09-01 | 2013-09-01 |   1   |        |    2   |   t
  867 |   37 |      t       |    1   |            |            |   3   |    t   |    3   |   t
 1137 |   58 |      f       |    1   | 2011-09-01 | 2013-09-01 |   1   |        |    2   |   t
 1130 |   58 |      f       |    1   | 2011-09-01 | 2013-09-01 |   1   |        |    2   |   t
  766 |    5 |      t       |    1   | 2009-10-01 | 2011-07-01 |   3   |    f   |    3   |   t
 1020 |   18 |      t       |    2   | 2011-10-01 | 2012-09-01 |   3   |    t   |    3   |   t
  848 |   22 |      t       |    1   |            |            |   3   |    t   |    3   |   t
  844 |   37 |      t       |    2   |            |            |   3   |    t   |    3   |   t
  855 |   56 |      t       |    1   |            |            |   3   |    t   |    3   |   t
  864 |   59 |      t       |    1   |            |            |   3   |    t   |    3   |   t
 1138 |   58 |      f       |    1   | 2011-09-01 | 2013-09-01 |   1   |        |    2   |   t
 1057 |   24 |      t       |    2   | 2011-10-01 | 2012-09-01 |   3   |    t   |    4   |   t
 1139 |   58 |      f       |    1   | 2011-09-01 | 2013-09-01 |   1   |        |    2   |   t
  846 |   37 |      t       |    1   |            |            |   3   |    t   |    3   |   t
 1140 |   58 |      f       |    1   | 2011-09-01 | 2013-09-01 |   1   |        |    2   |   t
 1341 |   73 |      f       |    1   | 2008-10-01 | 2013-09-01 |   1   |        |    2   |   t
  854 |   41 |      t       |    1   |            |            |   3   |    t   |    3   |   t
  853 |   60 |      t       |    1   |            |            |   3   |    t   |    3   |   t
 1028 |   70 |      t       |    2   | 2010-10-01 | 2012-09-01 |   3   |    t   |    3   |   t
  850 |   56 |      t       |    1   |            |            |   3   |    t   |    3   |   t
  860 |   59 |      t       |    1   |            |            |   3   |    t   |    3   |   t
  863 |   69 |      t       |    1   |            |            |   3   |    t   |    3   |   t
  856 |   22 |      t       |    1   |            |            |   3   |    t   |    3   |   t
 1302 |   13 |      f       |    2   | 2012-06-01 | 2012-08-01 |   2   |        |    4   |   t
  849 |   23 |      t       |    1   |            |            |   3   |    t   |    3   |   t
 1055 |   22 |      f       |    1   | 2012-01-01 | 2013-01-01 |   1   |        |    4   |   t
 1320 |   37 |      f       |    1   | 2009-07-01 |            |   1   |        |    2   |   t
 1136 |   58 |      f       |    1   | 2011-09-01 | 2013-09-01 |   1   |        |    2   |   t
 1019 |   58 |      t       |    2   | 2011-10-01 | 2012-09-01 |   3   |    t   |    3   |   t
 1128 |   58 |      f       |    1   | 2011-09-01 | 2013-09-01 |   1   |        |    4   |   t
  857 |   23 |      t       |    1   |            |            |   3   |    t   |    3   |   t
  851 |   56 |      t       |    1   |            |            |   3   |    t   |    3   |   t
  862 |   68 |      t       |    1   |            |            |   3   |    t   |    3   |   t
  861 |   60 |      t       |    1   |            |            |   3   |    t   |    3   |   t
 1300 |   13 |      f       |    2   | 2012-06-01 | 2012-08-01 |   1   |        |    2   |   t
 1318 |   37 |      f       |    2   | 2011-05-01 | 2011-09-01 |   3   |    f   |    3   |   t
 1325 |   37 |      f       |    1   | 2011-09-01 |            |   1   |        |    2   |   t
 1131 |   58 |      f       |    1   | 2011-09-01 | 2013-09-01 |   1   |        |    2   |   t
  845 |   37 |      t       |    1   |            |            |   3   |    t   |    3   |   t
 1134 |   58 |      f       |    1   | 2011-09-01 | 2013-09-01 |   1   |        |    2   |   t
 1092 |   30 |      t       |    2   | 2011-10-01 | 2012-09-01 |   3   |    t   |    3   |   t
 1093 |   30 |      f       |    2   | 2012-04-01 | 2012-09-01 |   3   |    t   |    3   |   t
 1040 |   13 |      f       |    1   | 2002-05-01 |            |   3   |    t   |    3   |   t
 1127 |   58 |      f       |    1   | 2011-09-01 | 2013-09-01 |   1   |        |    4   |   t
 1039 |    4 |      t       |    2   | 2010-10-01 | 2012-09-01 |   3   |    t   |    3   |   t
 1053 |   56 |      f       |    1   | 2011-10-01 | 2013-10-01 |   3   |    t   |    3   |   t
 1024 |   37 |      f       |    1   | 2012-04-01 | 2013-04-01 |   2   |        |    4   |   t
  865 |   24 |      t       |    1   |            |            |   3   |    t   |    3   |   t
 1129 |   58 |      f       |    1   | 2011-09-01 | 2013-09-01 |   1   |        |    2   |   t
  868 |   41 |      t       |    1   |            |            |   3   |    t   |    3   |   t
 1041 |   13 |      f       |    1   | 2012-08-01 | 2013-08-01 |   3   |    t   |    3   |   t
 1133 |   58 |      f       |    1   | 2011-09-01 | 2013-09-01 |   1   |        |    4   |   t
  847 |   56 |      t       |    1   |            |            |   3   |    t   |    3   |   t
(56 rows)




  id  | dept | product_only | status | begin_date |  end_date  | stage | worthy | editor | live
------+------+--------------+--------+------------+------------+-------+--------+--------+------
 1055 |  22  |      f       |    1   | 2012-01-01 | 2013-01-01 |   1   |        |    4   |   t
 1320 |  37  |      f       |    1   | 2009-07-01 |            |   1   |        |    2   |   t
 1136 |  58  |      f       |    1   | 2011-09-01 | 2013-09-01 |   1   |        |    2   |   t
 1126 |  58  |      f       |    1   | 2011-09-01 | 2013-09-01 |   1   |        |    4   |   t
 1128 |  58  |      f       |    1   | 2011-09-01 | 2013-09-01 |   1   |        |    4   |   t
 1135 |  58  |      f       |    1   | 2011-09-01 | 2013-09-01 |   1   |        |    2   |   t
 1137 |  58  |      f       |    1   | 2011-09-01 | 2013-09-01 |   1   |        |    2   |   t
 1130 |  58  |      f       |    1   | 2011-09-01 | 2013-09-01 |   1   |        |    2   |   t
 1024 |  37  |      f       |    1   | 2012-04-01 | 2013-04-01 |   2   |        |    4   |   t
  766 |   5  |      t       |    1   | 2009-10-01 | 2011-07-01 |   3   |    f   |    3   |   t
 1129 |  58  |      f       |    1   | 2011-09-01 | 2013-09-01 |   1   |        |    2   |   t
 1133 |  58  |      f       |    1   | 2011-09-01 | 2013-09-01 |   1   |        |    4   |   t
 1300 |  13  |      f       |    2   | 2012-06-01 | 2012-08-01 |   1   |        |    2   |   t
 1318 |  37  |      f       |    2   | 2011-05-01 | 2011-09-01 |   3   |    f   |    3   |   t
 1325 |  37  |      f       |    1   | 2011-09-01 |            |   1   |        |    2   |   t
 1131 |  58  |      f       |    1   | 2011-09-01 | 2013-09-01 |   1   |        |    2   |   t
 1302 |  13  |      f       |    2   | 2012-06-01 | 2012-08-01 |   2   |        |    4   |   t
 1138 |  58  |      f       |    1   | 2011-09-01 | 2013-09-01 |   1   |        |    2   |   t
 1134 |  58  |      f       |    1   | 2011-09-01 | 2013-09-01 |   1   |        |    2   |   t
 1139 |  58  |      f       |    1   | 2011-09-01 | 2013-09-01 |   1   |        |    2   |   t
 1140 |  58  |      f       |    1   | 2011-09-01 | 2013-09-01 |   1   |        |    2   |   t
 1341 |  73  |      f       |    1   | 2008-10-01 | 2013-09-01 |   1   |        |    2   |   t
 1127 |  58  |      f       |    1   | 2011-09-01 | 2013-09-01 |   1   |        |    4   |   t
(23 rows)
